Introduction to birddog • birddog
…
# g01

# tictoc::tic()
# groups_stm_prepare_g01 <- sniff_groups_stm_prepare(groups, group_to_stm = 'g01')
# tictoc::toc()
# 21 min

groups_stm_prepare <- readRDS('~/Sync/birddog-data/wos-sugarcane-groups-stm-prepare-g01.rds')
names(groups_stm_prepare)
#> [1] "result"     "plots"      "data"       "parameters"

groups_stm_prepare$plots
#> $metrics_by_k
#> $data
#> # A tibble: 160 × 3
#>        K metric         value
#>    <dbl> <chr>          <dbl>
#>  1     5 exclus          8.85
#>  2     5 semcoh        -54.9 
#>  3     5 residual        2.98
#>  4     5 lbound   -1626460.  
#>  5     6 exclus          8.94
#>  6     6 semcoh        -65.2 
#>  7     6 residual        2.90
#>  8     6 lbound   -1616142.  
#>  9     7 exclus          8.98
#> 10     7 semcoh        -66.5 
#> # ℹ 150 more rows
…
